[
    {
        "filter_name": "oplus_adfr_config"
    },
    {
        "version": 20230103
    },
    {
        "sub_version": "ADFR2.0"
    },
    {
        "feature_sa": "true"
    },
    {
        "feature_osync": 3
    },
    {
        "sa_backlight": true,
        "sa_backlight_strategy": [
            {
                "fps": 120,
                "list": [
                    "30:120",
                    "200:10",
                    "300:5",
                    "1500:1"
                ]
            },
            {
                "fps": 60,
                "list": [
                    "30:30",
                    "200:10",
                    "300:5",
                    "1500:1"
                ]
            }
        ]
    },
    {
        "sa_backlight_pwm": true,
        "sa_backlight_strategy_pwm": [
            {
                "fps": 120,
                "list": [
                    "100:120",
                    "200:10",
                    "300:5",
                    "1500:1"
                ]
            },
            {
                "fps": 60,
                "list": [
                    "100:60",
                    "200:10",
                    "300:5",
                    "1500:1"
                ]
            }
        ]
    },
    {
        "game_list": [
            {
                "pkg_name": [
                    "com.tencent.tmgp.sgame"
                ],
                "available": true,
                "flee_brightness": true,
                "not_game_win_name": [
                    "com.ryg.dynamicload.DLProxyProcessActivity"
                ]
            },
            {
                "pkg_name": [
                    "com.riotgames.league.wildrift",
                    "com.riotgames.league.wildrifttw"
                ],
                "available": true,
                "flee_brightness": true
            },
            {
                "pkg_name": [
                    "com.tencent.tmgp.supercell.brawlstars",
                    "com.youzu.bs.nearme.gamecenter",
                    "com.youzu.bs",
                    "com.supercell.brawlstars"
                ],
                "available": true,
                "flee_brightness": true
            },
            {
                "pkg_name": [
                    "com.tencent.tmgp.speedmobile",
                    "com.tencent.qqspmi"
                ],
                "available": true,
                "flee_brightness": true
            },
            {
                "pkg_name": [
                    "com.tencent.tmgp.cod",
                    "com.garena.game.codm",
                    "com.activision.callofduty.shooter"
                ],
                "available": true,
                "flee_brightness": true
            },
            {
                "pkg_name": [
                    "com.tencent.tmgp.pubgmhd"
                ],
                "available": true,
                "flee_brightness": true,
                "not_game_win_name": [
                    "com.ryg.dynamicload.DLProxyProcessActivity"
                ]
            },
            {
                "pkg_name": [
                    "com.tencent.ig"
                ],
                "available": true,
                "flee_brightness": true
            },
            {
                "pkg_name": [
                    "com.tencent.tmgp.cf"
                ],
                "available": true,
                "flee_brightness": true
            },
            {
                "pkg_name": [
                    "com.tencent.lolm"
                ],
                "available": true,
                "flee_brightness": true
            },
            {
                "pkg_name": [
                    "com.wepie.snake.nearme.gamecenter"
                ],
                "available": true,
                "flee_brightness": true
            },
            {
                "pkg_name": [
                    "com.netease.harrypotter.nearme.gamecenter"
                ],
                "available": true,
                "flee_brightness": true
            },
            {
                "pkg_name": [
                    "com.netease.sky.nearme.gamecenter"
                ],
                "available": true,
                "flee_brightness": true
            },
            {
                "pkg_name": [
                    "com.tencent.KiHan"
                ],
                "available": true,
                "flee_brightness": true
            },
            {
                "pkg_name": [
                    "com.riotgames.league.wildriftvn",
                    "com.riotgames.internal.wildrift.test",
                    "com.pubg.imobile",
                    "com.mobile.legends",
                    "com.dts.freefireth",
                    "com.dts.freefiremax",
                    "com.garena.game.kgth"
                ],
                "available": true,
                "flee_brightness": true
            },
            {
                "pkg_name": [
                    "com.kitkagames.fallbuddies"
                ],
                "available": true,
                "flee_brightness": true
            },
            {
                "pkg_name": [
                    "com.garena.game.kgvn"
                ],
                "available": true,
                "flee_brightness": true
            },
            {
                "pkg_name": [
                    "com.roblox.client"
                ],
                "available": true,
                "flee_brightness": true
            },
            {
                "pkg_name": [
                    "com.mojang.minecraftpe"
                ],
                "available": true,
                "flee_brightness": true
            },
            {
                "pkg_name": [
                    "jp.konami.pesam"
                ],
                "available": true,
                "flee_brightness": true
            },
            {
                "pkg_name": [
                    "com.vng.pubgmobile"
                ],
                "available": true,
                "flee_brightness": true
            },
            {
                "pkg_name": [
                    "com.ea.gp.apexlegendsmobilefps"
                ],
                "available": true,
                "flee_brightness": true
            },
            {
                "pkg_name": [
                    "com.tw.fivexgames.apexlegendsmobile"
                ],
                "available": true,
                "flee_brightness": true
            },
            {
                "pkg_name": [
                    "com.levelinfinite.apexlegendsmobile"
                ],
                "available": true,
                "flee_brightness": true
            },
            {
                "pkg_name": [
                    "com.miHoYo.GenshinImpact"
                ],
                "available": true,
                "flee_brightness": true
            }
        ]
    },
    {
        "touch_idle": true,
        "hw_enable": false,
        "sw_enable": true,
        "adfr_enable": true,
        "timeout": 4000,
        "content_threshold":30,
        "content_gap_ms":400,
        "hw_gray": true,
        "hw_gray_threshold": 55,
        "hw_gray_percent": 70,
        "hw_nit_limit": 30,
        "hw_nit_limit_pwm": 30,
        "adfr_to_hw": [
            "tv.danmaku.bili",
            "com.hunantv.imgo.activity",
            "com.ss.android.article.video",
            "com.tencent.qqlive",
            "com.qiyi.video",
            "com.sina.weibo"
        ],
        "special_timeout": {
            "com.tencent.mobileqq": 3500,
            "com.android.contacts": 3500,
            "com.coloros.gallery3d": 4000,
            "com.android.wallpaper.livepicker": 4000,
            "com.oplus.wallpapers": 4000,
            "com.android.launcher": 5000,
            "com.tencent.qqmusic": 3500,
            "com.facebook.katana": 10000
        },
        "special_timeout_content_gap": {
            "com.tencent.mm": 3500,
            "com.tencent.mobileqq": 3500,
            "com.eg.android.AlipayGphone": 3500
        },
        "blacklist": [
            "com.android.settings",
            "com.android.mms",
            "com.oplus.engineermode",
            "com.antutu.ABenchMark",
            "com.antutu.benchmark.full",
            "com.ludashi.benchmark2",
            "com.ludashi.benchmark",
            "com.coloros.video",
            "com.tencent.tvoem",
            "com.tencent.tmgp.speedmobile",
            "com.tencent.af",
            "com.netease.blqx.nearme.gamecenter",
            "com.netease.lztg.nearme.gamecenter",
            "com.pwrd.xxajh.nearme.gamecenter",
            "com.netease.blqx",
            "com.netease.lztg",
            "com.tencent.ig",
            "com.tencent.lolm",
            "com.riotgames.league.wildrift",
            "com.riotgames.internal.wildrift.trunk",
            "com.riotgames.internal.wildrift.test",
            "com.riotgames.league.wildriftvn",
            "com.riotgames.league.wildrifttw",
            "com.tencent.tmgp.sgame",
            "com.tencent.tmgp.cf",
            "com.tencent.tmgp.pubgmhd",
            "com.pubg.krmobile",
            "com.vng.pubgmobile",
            "com.pubg.imobile",
            "com.rekoo.pubgm",
            "com.tencent.tmgp.projectg",
            "com.tencent.igce",
            "com.tencent.iglite",
            "com.tencent.tmgp.sgamece",
            "com.tencent.KiHan",
            "com.tencent.tmgp.KiHan",
            "com.netease.yokaikoya",
            "com.miHoYo.enterprise.NGHSoD",
            "com.miHoYo.bh3.nearme.gamecenter",
            "com.miHoYo.Yuanshen",
            "com.tencent.tmgp.eyou.ygwu",
            "com.netease.yokaikoya.nearme.gamecenter",
            "com.tencent.YiRen",
            "com.netease.wptqz",
            "com.netease.jddsaef",
            "com.netease.jddsaef.nearme.gamecenter",
            "com.tencent.tmgp.jddsaef",
            "com.tencent.tmgp.yongyong.lztg",
            "com.tencent.tmgp.eyou.blqx",
            "com.pwrd.xxajh.laohu",
            "com.tencent.tmgp.xxajh",
            "com.tencent.tmgp.eyou.blqx",
            "com.netease.moba.nearme.gamecenter",
            "com.tencent.tmgp.kaopu.jzpaj",
            "com.tencent.tmgp.kaopu.jzpaj",
            "com.pwrd.xsmdl.laohu",
            "com.xsmdl.nearme.gamecenter",
            "com.tencent.tmgp.xsmdl",
            "com.youzu.bs",
            "com.youzu.bs.nearme.gamecenter",
            "com.yingxiong.dftk.nearme.gamecenter",
            "com.yunbu.rehtona.nearme.gamecenter",
            "com.denachina.g13002010.denacn",
            "com.denachina.g13002010.nearme.gamecenter",
            "com.volvapps.ef5.x.nearme.gamecenter",
            "com.tencent.tmgp.ef5",
            "com.tencent.tmgp.hqxy",
            "com.netease.x19",
            "com.tencent.tmgp.wdsj666",
            "com.netease.mc.nearme.gamecenter",
            "com.palmpi.hcollege.nearme.gamecenter",
            "com.palmpi.hcollege.feiyu",
            "com.tencent.tmgp.supercell.brawlstars",
            "com.ztgame.bob",
            "com.netease.hyxd.nearme.gamecenter",
            "com.netease.dwrg.nearme.gamecenter",
            "com.tencent.qqsports",
            "com.netflix.mediaclient",
            "com.android.packageinstaller",
            "com.oplus.appdetail",
            "com.kitkagames.fallbuddies",
            "com.garena.game.kgvn",
            "com.garena.game.codm",
            "com.roblox.client",
            "com.mojang.minecraftpe",
            "jp.konami.pesam",
            "com.ea.gp.apexlegendsmobilefps",
            "com.tw.fivexgames.apexlegendsmobile",
            "com.levelinfinite.apexlegendsmobile",
            "com.miHoYo.GenshinImpact"
        ]
    },
    {
        "cvt": true
    },
    {
        "frtc": true
    },
    {
        "deferred_mode_change": true
    },
    {
        "touch_frame_change": true,
        "strategy": 2,
        "frtc_capability": 120,
        "whitelist": [
            "com.android.chrome",
            "com.whatsapp",
            "com.gbwhatsapp",
            "com.google.android.youtube",
            "com.android.contacts",
            "com.android.mms",
            "com.android.vending",
            "com.facebook.katana",
            "com.ss.android.ugc.trill",
            "com.instagram.android",
            "com.google.android.gm",
            "com.snapchat.android",
            "org.telegram.messenger",
            "com.google.android.apps.maps",
            "com.spotify.music",
            "com.facebook.orca",
            "com.twitter.android",
            "com.bumble.app",
            "com.whatsapp.w4b",
            "com.heytap.browser",
            "com.android.mms",
            "com.android.contacts",
            "com.oppo.gallery3d",
            "com.heytap.market",
            "com.android.settings",
            "com.finshell.wallet",
            "com.coloros.weather2",
            "com.heytap.pictorial",
            "com.coloros.note",
            "com.heytap.instant.platform",
            "com.android.systemui",
            "com.coloros.phonemanager",
            "com.coloros.filemanager",
            "com.heytap.themestore",
            "com.heytap.yoli",
            "com.nearme.gamecenter",
            "com.coloros.assistantscreen",
            "com.oppo.store",
            "com.android.captiveportallogin",
            "com.heytap.cloud",
            "com.heytap.music",
            "com.android.nfc",
            "com.coloros.backuprestore",
            "com.coloros.video",
            "com.android.vpndialogs",
            "com.coloros.wirelesssettings",
            "com.android.email",
            "com.android.wallpaper.livepicker",
            "com.heytap.smarthome",
            "com.coloros.findmyphone",
            "com.coloros.familyguard",
            "com.coloros.colordirectservice",
            "com.coloros.operationManual",
            "com.coloros.safecenter",
            "com.redteamobile.roaming",
            "com.oplus.games"
        ],
        "blacklist": [
        ],
        "min_framerate_map": {
            "tv.danmaku.bili": 60,
            "com.coloros.gallery3d": 60,
            "com.coloros.filemanager": 60
        }
    },
    {
        "debug_overlay": [
            "1",
            "1",
            "150",
            "-1",
            "2",
            "1",
            "3",
            "5",
            "5",
            "8",
            "10",
            "10",
            "13",
            "16",
            "15"
        ]
    }
]
